// Jest Snapshot v1, https://goo.gl/fbAQLP

exports[`<RadioList/> renders and matches snapshot 1`] = `
<div
  className="field"
>
  <label
    className="label"
  >
    Test
  </label>
  <div
    className="control"
    key="item1"
  >
    <label
      className="radio"
      disabled={false}
    >
      <input
        checked={true}
        disabled={false}
        name="answer"
        type="radio"
        value="item1"
      />
      item1
    </label>
  </div>
  <div
    className="control"
    key="item2"
  >
    <label
      className="radio"
      disabled={false}
    >
      <input
        checked={false}
        disabled={false}
        name="answer"
        type="radio"
        value="item2"
      />
      item2
    </label>
  </div>
</div>
`;
