// Jest Snapshot v1, https://goo.gl/fbAQLP

exports[`<Sapir/> renders and matches snapshot 1`] = `
<svg
  className="sapir planet"
  viewBox="0 0 105.833 105.833"
  xmlns="http://www.w3.org/2000/svg"
>
  <defs>
    <ellipse
      cx="53.05"
      cy="244.106"
      fill="#dc6f4b"
      fillOpacity=".957"
      id="sapirClip"
      rx="52.027"
      ry="52.138"
    />
    <clipPath
      id="sapirClipPath"
    >
      <use
        overflow="visible"
        xlinkHref="#sapirClip"
      />
    </clipPath>
  </defs>
  <g
    clipPath="url(#sapirClipPath)"
    transform="translate(0 -191.167)"
  >
    <use
      fill="#4a96c2"
      overflow="visible"
      xlinkHref="#sapirClip"
    />
    <g
      className="sapir-lines"
      fill="#bc5d42"
    >
      <g>
        <rect
          height="5.292"
          ry="2.646"
          width="21.545"
          x="27.214"
          y="212.711"
        />
        <rect
          height="5.292"
          ry="2.646"
          width="21.545"
          x="74.254"
          y="242.913"
        />
        <rect
          height="5.292"
          ry="2.646"
          width="21.545"
          x="25.343"
          y="274.183"
        />
        <rect
          height="1.817"
          ry=".909"
          width="21.01"
          x="44.854"
          y="230.886"
        />
        <rect
          height="3.688"
          ry="1.844"
          width="6.31"
          x="30.154"
          y="242.378"
        />
        <rect
          height="3.688"
          ry="1.844"
          width="12.19"
          x="52.872"
          y="254.405"
        />
        <rect
          height="1.817"
          ry=".909"
          width="13.527"
          x="63.563"
          y="207.099"
        />
        <rect
          height="4.223"
          ry="2.111"
          width="17.536"
          x="72.383"
          y="266.967"
        />
        <rect
          height="2.619"
          ry="1.309"
          width="16.734"
          x="19.463"
          y="256.811"
        />
        <rect
          height="3.421"
          ry="1.71"
          width="8.181"
          x="79.065"
          y="222.333"
        />
        <rect
          height="3.688"
          ry="1.844"
          width="10.052"
          x="14.92"
          y="231.955"
        />
        <rect
          height="3.688"
          ry="1.844"
          width="6.043"
          x="-.314"
          y="241.309"
        />
        <rect
          height="2.619"
          ry="1.309"
          width="17.536"
          x="87.884"
          y="283.805"
        />
      </g>
      <g
        transform="translate(107.222 -.168)"
      >
        <rect
          height="5.292"
          ry="2.646"
          width="21.545"
          x="27.214"
          y="212.711"
        />
        <rect
          height="5.292"
          ry="2.646"
          width="21.545"
          x="74.254"
          y="242.913"
        />
        <rect
          height="5.292"
          ry="2.646"
          width="21.545"
          x="25.343"
          y="274.183"
        />
        <rect
          height="1.817"
          ry=".909"
          width="21.01"
          x="44.854"
          y="230.886"
        />
        <rect
          height="3.688"
          ry="1.844"
          width="6.31"
          x="30.154"
          y="242.378"
        />
        <rect
          height="3.688"
          ry="1.844"
          width="12.19"
          x="52.872"
          y="254.405"
        />
        <rect
          height="1.817"
          ry=".909"
          width="13.527"
          x="63.563"
          y="207.099"
        />
        <rect
          height="4.223"
          ry="2.111"
          width="17.536"
          x="72.383"
          y="266.967"
        />
        <rect
          height="2.619"
          ry="1.309"
          width="16.734"
          x="19.463"
          y="256.811"
        />
        <rect
          height="3.421"
          ry="1.71"
          width="8.181"
          x="79.065"
          y="222.333"
        />
        <rect
          height="3.688"
          ry="1.844"
          width="10.052"
          x="14.92"
          y="231.955"
        />
        <rect
          height="3.688"
          ry="1.844"
          width="6.043"
          x="-.314"
          y="241.309"
        />
        <rect
          height="2.619"
          ry="1.309"
          width="17.536"
          x="87.884"
          y="283.805"
        />
      </g>
      <g
        transform="translate(213.491 -.168)"
      >
        <rect
          height="5.292"
          ry="2.646"
          width="21.545"
          x="27.214"
          y="212.711"
        />
        <rect
          height="5.292"
          ry="2.646"
          width="21.545"
          x="74.254"
          y="242.913"
        />
        <rect
          height="5.292"
          ry="2.646"
          width="21.545"
          x="25.343"
          y="274.183"
        />
        <rect
          height="1.817"
          ry=".909"
          width="21.01"
          x="44.854"
          y="230.886"
        />
        <rect
          height="3.688"
          ry="1.844"
          width="6.31"
          x="30.154"
          y="242.378"
        />
        <rect
          height="3.688"
          ry="1.844"
          width="12.19"
          x="52.872"
          y="254.405"
        />
        <rect
          height="1.817"
          ry=".909"
          width="13.527"
          x="63.563"
          y="207.099"
        />
        <rect
          height="4.223"
          ry="2.111"
          width="17.536"
          x="72.383"
          y="266.967"
        />
        <rect
          height="2.619"
          ry="1.309"
          width="16.734"
          x="19.463"
          y="256.811"
        />
        <rect
          height="3.421"
          ry="1.71"
          width="8.181"
          x="79.065"
          y="222.333"
        />
        <rect
          height="3.688"
          ry="1.844"
          width="10.052"
          x="14.92"
          y="231.955"
        />
        <rect
          height="3.688"
          ry="1.844"
          width="6.043"
          x="-.314"
          y="241.309"
        />
        <rect
          height="2.619"
          ry="1.309"
          width="17.536"
          x="87.884"
          y="283.805"
        />
      </g>
    </g>
    <path
      d="M95.159 213.594a65.823 60.264 0 0 1 2.36 15.96 65.823 60.264 0 0 1-65.824 60.265 65.823 60.264 0 0 1-3.953-.182 52.027 52.138 0 0 0 25.309 6.607 52.027 52.138 0 0 0 52.026-52.138 52.027 52.138 0 0 0-9.918-30.512z"
      fillOpacity=".276"
    />
  </g>
</svg>
`;
