// Jest Snapshot v1, https://goo.gl/fbAQLP

exports[`<Footer/> renders and matches snapshot 1`] = `
<footer
  className="footer"
>
  <div
    className="content has-text-centered"
  >
    <p>
      <strong>
        Coding Challenge
      </strong>
       by
      <a
        href="https://www.geektrust.in/coding-problem"
      >
         Geektrust
      </a>
      .
    </p>
  </div>
</footer>
`;
