// Jest Snapshot v1, https://goo.gl/fbAQLP

exports[`<Main/> renders and matches snapshot 1`] = `
<_Main
  destination1={n {}}
  destination2={n {}}
  destination3={n {}}
  destination4={n {}}
  fetchPlanets={
    [MockFunction] {
      "calls": Array [
        Array [],
      ],
      "results": Array [
        Object {
          "isThrow": false,
          "value": undefined,
        },
      ],
    }
  }
  fetchToken={
    [MockFunction] {
      "calls": Array [
        Array [],
      ],
      "results": Array [
        Object {
          "isThrow": false,
          "value": undefined,
        },
      ],
    }
  }
  fetchVehicles={
    [MockFunction] {
      "calls": Array [
        Array [],
      ],
      "results": Array [
        Object {
          "isThrow": false,
          "value": undefined,
        },
      ],
    }
  }
  isFetchingPlanets={false}
  isFetchingResult={false}
  isFetchingToken={false}
  isFetchingVehicles={false}
  planets={Array []}
  result={n {}}
  selectedDestination={n {}}
  showError={false}
  token={n {}}
  vehicles={Array []}
/>
`;
