<?xml version="1.0" encoding="UTF-8" standalone="no"?>
<!-- Created with Inkscape (http://www.inkscape.org/) -->

<svg
   xmlns:dc="http://purl.org/dc/elements/1.1/"
   xmlns:cc="http://creativecommons.org/ns#"
   xmlns:rdf="http://www.w3.org/1999/02/22-rdf-syntax-ns#"
   xmlns:svg="http://www.w3.org/2000/svg"
   xmlns="http://www.w3.org/2000/svg"
   xmlns:sodipodi="http://sodipodi.sourceforge.net/DTD/sodipodi-0.dtd"
   xmlns:inkscape="http://www.inkscape.org/namespaces/inkscape"
   width="400"
   height="400"
   viewBox="0 0 105.83333 105.83334"
   version="1.1"
   id="svg8"
   inkscape:version="0.92.2 5c3e80d, 2017-08-06"
   sodipodi:docname="donlon.svg">
  <defs
     id="defs2" />
  <sodipodi:namedview
     id="base"
     pagecolor="#ffffff"
     bordercolor="#666666"
     borderopacity="1.0"
     inkscape:pageopacity="0.0"
     inkscape:pageshadow="2"
     inkscape:zoom="0.52659052"
     inkscape:cx="553.03123"
     inkscape:cy="77.406805"
     inkscape:document-units="mm"
     inkscape:current-layer="layer1"
     showgrid="false"
     units="px"
     inkscape:window-width="1440"
     inkscape:window-height="800"
     inkscape:window-x="0"
     inkscape:window-y="1"
     inkscape:window-maximized="1" />
  <metadata
     id="metadata5">
    <rdf:RDF>
      <cc:Work
         rdf:about="">
        <dc:format>image/svg+xml</dc:format>
        <dc:type
           rdf:resource="http://purl.org/dc/dcmitype/StillImage" />
        <dc:title></dc:title>
      </cc:Work>
    </rdf:RDF>
  </metadata>
  <g
     inkscape:label="Layer 1"
     inkscape:groupmode="layer"
     id="layer1"
     transform="translate(0,-191.16665)">
    <ellipse
       style="fill:#eccf89;fill-opacity:0.95686275;stroke-width:0.30900779"
       id="path815"
       cx="53.050301"
       cy="244.10626"
       rx="52.027073"
       ry="52.137783" />
    <g
       id="g1120"
       transform="translate(0,3.0146764)">
      <g
         id="g1064">
        <rect
           style="fill:#fcebdd;fill-opacity:0.95686275;stroke-width:0.33642334"
           id="rect1043"
           width="106.96725"
           height="65.011902"
           x="-0.14235909"
           y="214.20813" />
        <path
           style="fill:#db894d;fill-opacity:0.95686275;stroke-width:0.23442106"
           d="m -0.14235909,204.75873 16.26096309,2.66462 37.933227,-0.71056 19.280869,-3.73048 33.49219,1.77642 v 17.76488 l -22.123133,-3.37519 -31.360492,3.37519 -29.228793,-4.61868 -24.25483109,4.61868 z"
           id="rect1045"
           inkscape:connector-curvature="0"
           sodipodi:nodetypes="ccccccccccc" />
        <path
           style="fill:#db894d;fill-opacity:0.95686275;stroke-width:0.23442106"
           d="m -0.52033526,230.08313 24.43247126,3.55283 29.051151,-3.55283 27.097095,1.24349 26.386528,-1.24349 v 17.76488 l -26.031245,-1.42113 -12.35285,3.73047 -53.74332,-9.415 -14.83983026,7.10566 z"
           id="rect1047"
           inkscape:connector-curvature="0"
           sodipodi:nodetypes="ccccccccccc" />
        <path
           style="fill:#db894d;fill-opacity:0.95686275;stroke-width:0.1872873"
           d="m -0.52033526,252.38373 26.74181126,2.1317 25.143038,-3.01991 42.729547,5.86217 12.352849,-4.97396 v 11.33928 l -23.366623,1.77642 -32.426339,-4.44104 -19.991434,1.06585 -31.18284926,1.59877 z"
           id="rect1049"
           inkscape:connector-curvature="0"
           sodipodi:nodetypes="ccccccccccc" />
        <path
           style="fill:#db894d;fill-opacity:0.95686275;stroke-width:0.1872873"
           d="m -0.3200006,271.58145 39.5330916,0.0358 31.93499,-1.93616 35.665459,1.61668 0.0113,7.92225 -57.841515,0.10975 -24.296405,2.16564 -24.65168758,-2.45303 z"
           id="rect1051"
           inkscape:connector-curvature="0"
           sodipodi:nodetypes="ccccccccc" />
      </g>
      <g
         transform="translate(106.96726)"
         id="g1076">
        <rect
           y="214.20813"
           x="-0.14235909"
           height="65.011902"
           width="106.96725"
           id="rect1066"
           style="fill:#fcebdd;fill-opacity:0.95686275;stroke-width:0.33642334" />
        <path
           sodipodi:nodetypes="ccccccccccc"
           inkscape:connector-curvature="0"
           id="path1068"
           d="m -0.14235909,204.75873 16.26096309,2.66462 37.933227,-0.71056 19.280869,-3.73048 33.49219,1.77642 v 17.76488 l -22.123133,-3.37519 -31.360492,3.37519 -29.228793,-4.61868 -24.25483109,4.61868 z"
           style="fill:#db894d;fill-opacity:0.95686275;stroke-width:0.23442106" />
        <path
           sodipodi:nodetypes="ccccccccccc"
           inkscape:connector-curvature="0"
           id="path1070"
           d="m -0.52033526,230.08313 24.43247126,3.55283 29.051151,-3.55283 27.097095,1.24349 26.386528,-1.24349 v 17.76488 l -26.031245,-1.42113 -12.35285,3.73047 -53.74332,-9.415 -14.83983026,7.10566 z"
           style="fill:#db894d;fill-opacity:0.95686275;stroke-width:0.23442106" />
        <path
           sodipodi:nodetypes="ccccccccccc"
           inkscape:connector-curvature="0"
           id="path1072"
           d="m -0.52033526,252.38373 26.74181126,2.1317 25.143038,-3.01991 42.729547,5.86217 12.352849,-4.97396 v 11.33928 l -23.366623,1.77642 -32.426339,-4.44104 -19.991434,1.06585 -31.18284926,1.59877 z"
           style="fill:#db894d;fill-opacity:0.95686275;stroke-width:0.1872873" />
        <path
           sodipodi:nodetypes="ccccccccc"
           inkscape:connector-curvature="0"
           id="path1074"
           d="m -0.3200006,271.58145 39.5330916,0.0358 31.93499,-1.93616 35.665459,1.61668 0.0113,7.92225 -57.841515,0.10975 -24.296405,2.16564 -24.65168758,-2.45303 z"
           style="fill:#db894d;fill-opacity:0.95686275;stroke-width:0.1872873" />
      </g>
      <g
         transform="translate(213.93451)"
         id="g1100">
        <rect
           y="214.20813"
           x="-0.14235909"
           height="65.011902"
           width="106.96725"
           id="rect1090"
           style="fill:#fcebdd;fill-opacity:0.95686275;stroke-width:0.33642334" />
        <path
           sodipodi:nodetypes="ccccccccccc"
           inkscape:connector-curvature="0"
           id="path1092"
           d="m -0.14235909,204.75873 16.26096309,2.66462 37.933227,-0.71056 19.280869,-3.73048 33.49219,1.77642 v 17.76488 l -22.123133,-3.37519 -31.360492,3.37519 -29.228793,-4.61868 -24.25483109,4.61868 z"
           style="fill:#db894d;fill-opacity:0.95686275;stroke-width:0.23442106" />
        <path
           sodipodi:nodetypes="ccccccccccc"
           inkscape:connector-curvature="0"
           id="path1094"
           d="m -0.52033526,230.08313 24.43247126,3.55283 29.051151,-3.55283 27.097095,1.24349 26.386528,-1.24349 v 17.76488 l -26.031245,-1.42113 -12.35285,3.73047 -53.74332,-9.415 -14.83983026,7.10566 z"
           style="fill:#db894d;fill-opacity:0.95686275;stroke-width:0.23442106" />
        <path
           sodipodi:nodetypes="ccccccccccc"
           inkscape:connector-curvature="0"
           id="path1096"
           d="m -0.52033526,252.38373 26.74181126,2.1317 25.143038,-3.01991 42.729547,5.86217 12.352849,-4.97396 v 11.33928 l -23.366623,1.77642 -32.426339,-4.44104 -19.991434,1.06585 -31.18284926,1.59877 z"
           style="fill:#db894d;fill-opacity:0.95686275;stroke-width:0.1872873" />
        <path
           sodipodi:nodetypes="ccccccccc"
           inkscape:connector-curvature="0"
           id="path1098"
           d="m -0.3200006,271.58145 39.5330916,0.0358 31.93499,-1.93616 35.665459,1.61668 0.0113,7.92225 -57.841515,0.10975 -24.296405,2.16564 -24.65168758,-2.45303 z"
           style="fill:#db894d;fill-opacity:0.95686275;stroke-width:0.1872873" />
      </g>
    </g>
  </g>
</svg>
