<?xml version="1.0" encoding="UTF-8" standalone="no"?>
<!-- Created with Inkscape (http://www.inkscape.org/) -->

<svg
   xmlns:dc="http://purl.org/dc/elements/1.1/"
   xmlns:cc="http://creativecommons.org/ns#"
   xmlns:rdf="http://www.w3.org/1999/02/22-rdf-syntax-ns#"
   xmlns:svg="http://www.w3.org/2000/svg"
   xmlns="http://www.w3.org/2000/svg"
   xmlns:sodipodi="http://sodipodi.sourceforge.net/DTD/sodipodi-0.dtd"
   xmlns:inkscape="http://www.inkscape.org/namespaces/inkscape"
   width="400"
   height="400"
   viewBox="0 0 105.83333 105.83334"
   version="1.1"
   id="svg8"
   inkscape:version="0.92.2 5c3e80d, 2017-08-06"
   sodipodi:docname="enchai.svg">
  <defs
     id="defs2" />
  <sodipodi:namedview
     id="base"
     pagecolor="#ffffff"
     bordercolor="#666666"
     borderopacity="1.0"
     inkscape:pageopacity="0.0"
     inkscape:pageshadow="2"
     inkscape:zoom="0.7"
     inkscape:cx="504.84859"
     inkscape:cy="235.43274"
     inkscape:document-units="mm"
     inkscape:current-layer="layer1"
     showgrid="false"
     units="px"
     inkscape:window-width="1440"
     inkscape:window-height="802"
     inkscape:window-x="0"
     inkscape:window-y="1"
     inkscape:window-maximized="1" />
  <metadata
     id="metadata5">
    <rdf:RDF>
      <cc:Work
         rdf:about="">
        <dc:format>image/svg+xml</dc:format>
        <dc:type
           rdf:resource="http://purl.org/dc/dcmitype/StillImage" />
        <dc:title />
      </cc:Work>
    </rdf:RDF>
  </metadata>
  <g
     inkscape:label="Layer 1"
     inkscape:groupmode="layer"
     id="layer1"
     transform="translate(0,-191.16665)">
    <ellipse
       style="fill:#dc6f4b;fill-opacity:0.95686275;stroke-width:0.30900779"
       id="path815"
       cx="53.050301"
       cy="244.10626"
       rx="52.027073"
       ry="52.137783" />
    <g
       id="g1039">
      <ellipse
         ry="12.083357"
         rx="14.348889"
         cy="233.17941"
         cx="14.269654"
         id="path817"
         style="fill:#bc5d42;fill-opacity:1;stroke-width:0.41745883" />
      <ellipse
         style="fill:#bc5d42;fill-opacity:1;stroke-width:0.21608771"
         id="ellipse825"
         cx="41.27496"
         cy="214.53979"
         rx="7.6304965"
         ry="6.0881586" />
      <ellipse
         style="fill:#bc5d42;fill-opacity:1;stroke-width:0.47252887"
         id="ellipse827"
         cx="81.717041"
         cy="227.1842"
         rx="16.193155"
         ry="13.71841" />
      <ellipse
         ry="11.86535"
         rx="14.480623"
         cy="281.79501"
         cx="63.142662"
         id="ellipse829"
         style="fill:#bc5d42;fill-opacity:1;stroke-width:0.41557038" />
      <ellipse
         ry="6.0881586"
         rx="7.6304965"
         cy="272.09372"
         cx="14.664853"
         id="ellipse831"
         style="fill:#bc5d42;fill-opacity:1;stroke-width:0.21608771" />
      <ellipse
         ry="9.3582659"
         rx="13.163292"
         cy="249.63896"
         cx="52.077076"
         id="ellipse833"
         style="fill:#bc5d42;fill-opacity:1;stroke-width:0.35187683" />
      <ellipse
         ry="3.2540646"
         rx="3.9419672"
         cy="200.36932"
         cx="60.244537"
         id="ellipse835"
         style="fill:#bc5d42;fill-opacity:1;stroke-width:0.11354821" />
      <ellipse
         style="fill:#bc5d42;fill-opacity:1;stroke-width:0.11354821"
         id="ellipse837"
         cx="101.60876"
         cy="258.14124"
         rx="3.9419672"
         ry="3.2540646" />
      <ellipse
         ry="6.0881586"
         rx="7.6304965"
         cy="215.29575"
         cx="148.24222"
         id="ellipse870"
         style="fill:#bc5d42;fill-opacity:1;stroke-width:0.21608771" />
      <ellipse
         ry="10.883588"
         rx="12.224405"
         cy="220.19167"
         cx="185.84949"
         id="ellipse872"
         style="fill:#bc5d42;fill-opacity:1;stroke-width:0.36568794" />
      <ellipse
         style="fill:#bc5d42;fill-opacity:1;stroke-width:0.27081576"
         id="ellipse874"
         cx="164.81825"
         cy="260.06137"
         rx="8.4330044"
         ry="8.6525526" />
      <ellipse
         style="fill:#bc5d42;fill-opacity:1;stroke-width:0.21608771"
         id="ellipse876"
         cx="145.06664"
         cy="277.00742"
         rx="7.6304965"
         ry="6.0881586" />
      <ellipse
         style="fill:#bc5d42;fill-opacity:1;stroke-width:0.35187683"
         id="ellipse878"
         cx="140.90149"
         cy="237.16574"
         rx="13.163292"
         ry="9.3582659" />
      <ellipse
         style="fill:#bc5d42;fill-opacity:1;stroke-width:0.11354821"
         id="ellipse880"
         cx="164.56598"
         cy="224.55981"
         rx="3.9419672"
         ry="3.2540646" />
      <ellipse
         ry="3.2540646"
         rx="3.9419672"
         cy="255.49541"
         cx="202.90637"
         id="ellipse882"
         style="fill:#bc5d42;fill-opacity:1;stroke-width:0.11354821" />
      <ellipse
         style="fill:#bc5d42;fill-opacity:1;stroke-width:0.41745883"
         id="ellipse950"
         cx="222.15657"
         cy="233.4062"
         rx="14.348889"
         ry="12.083357" />
      <ellipse
         ry="6.0881586"
         rx="7.6304965"
         cy="214.76659"
         cx="249.16187"
         id="ellipse952"
         style="fill:#bc5d42;fill-opacity:1;stroke-width:0.21608771" />
      <ellipse
         ry="13.71841"
         rx="16.193155"
         cy="227.411"
         cx="289.60394"
         id="ellipse954"
         style="fill:#bc5d42;fill-opacity:1;stroke-width:0.47252887" />
      <ellipse
         style="fill:#bc5d42;fill-opacity:1;stroke-width:0.41557038"
         id="ellipse956"
         cx="271.02957"
         cy="282.02179"
         rx="14.480623"
         ry="11.86535" />
      <ellipse
         style="fill:#bc5d42;fill-opacity:1;stroke-width:0.21608771"
         id="ellipse958"
         cx="222.55176"
         cy="272.3205"
         rx="7.6304965"
         ry="6.0881586" />
      <ellipse
         style="fill:#bc5d42;fill-opacity:1;stroke-width:0.35187683"
         id="ellipse960"
         cx="259.96399"
         cy="249.86575"
         rx="13.163292"
         ry="9.3582659" />
      <ellipse
         style="fill:#bc5d42;fill-opacity:1;stroke-width:0.11354821"
         id="ellipse962"
         cx="268.13144"
         cy="200.59612"
         rx="3.9419672"
         ry="3.2540646" />
      <ellipse
         ry="3.2540646"
         rx="3.9419672"
         cy="258.36801"
         cx="309.49567"
         id="ellipse964"
         style="fill:#bc5d42;fill-opacity:1;stroke-width:0.11354821" />
    </g>
    <path
       style="fill:#000000;fill-opacity:0.27619048;stroke-width:1.16790342"
       d="M 359.6543 84.765625 A 248.78061 227.77047 0 0 1 368.57227 145.08594 A 248.78061 227.77047 0 0 1 119.79102 372.85742 A 248.78061 227.77047 0 0 1 104.85352 372.17188 A 196.63776 197.05619 0 0 0 200.50586 397.14258 A 196.63776 197.05619 0 0 0 397.14258 200.08594 A 196.63776 197.05619 0 0 0 359.6543 84.765625 z "
       transform="matrix(0.26458333,0,0,0.26458333,0,191.16665)"
       id="ellipse845" />
  </g>
</svg>
